…
# Get just the core data required by the 360Giving standard.
# Convert that list of tibbles into a tidy format:
all_data <- tsg_core_data(grant_list) 

avg_size <- all_data %>% #This %>% thing is a called a pipe. Pipes are love. Pipes are life.
  filter(currency == "GBP") %>% # Filter out non-£ data
  group_by(funding_org_name) %>% # Group all the funders together
  summarise(avg = mean(amount_awarded)) # Get the average of given value for each group, kinda like =AVERAGEIFS in Excel.

avg_size

# # A tibble: 109 x 2
#    funding_org_name                             avg
#    <chr>                                      <dbl>
#  1 A B Charitable Trust                      13714.
#  2 Barrow Cadbury Trust                      35889.
#  3 BBC Children in Need                      55968.
#  4 Birmingham City Council                   32097.
#  5 Calouste Gulbenkian Foundation, UK Branch 34352.
#  6 Camden Giving                             18254.
#  7 Cheshire Community Foundation              6027.
#  8 City Bridge Trust                         81381.
#  9 Cloudesley                                14441.
# 10 Co-operative Group                         3238.
# # ... with 99 more rows
```


Your boss comes and asks for average per year? Spot the difference:

```{r value-year-example, eval=FALSE}

avg_size_year <- all_data %>%
  filter(currency == "GBP") %>% # Filter out non-£ data
  group_by(funding_org_name, lubridate::year(award_date)) %>%
  summarise(avg = mean(amount_awarded))

avg_size_year

# # A tibble: 599 x 3
# # Groups:   funding_org_name [109]
#    funding_org_name     `lubridate::year(award_date)`    avg
#    <chr>                                        <dbl>  <dbl>
#  1 A B Charitable Trust                          2013  9407.
#  2 A B Charitable Trust                          2014 10008.
#  3 A B Charitable Trust                          2015 10797.
#  4 A B Charitable Trust                          2016 13689.
#  5 A B Charitable Trust                          2017 16110.
#  6 A B Charitable Trust                          2018 15619.
#  7 A B Charitable Trust                          2019 19387.
#  8 Barrow Cadbury Trust                          2012 31920.
#  9 Barrow Cadbury Trust                          2013 34753.
# 10 Barrow Cadbury Trust                          2014 30378.
# # ... with 589 more rows
```
…
